{
  "_meta": {
    "sources": [
      "loopback/common/models",
      "loopback/server/models",
      "../common/models",
      "./models"
    ],
    "mixins": [
      "loopback/common/mixins",
      "loopback/server/mixins",
      "../common/mixins",
      "./mixins"
    ]
  },
  "User": {
    "dataSource": "db"
  },
  "AccessToken": {
    "dataSource": "db",
    "public": false
  },
  "ACL": {
    "dataSource": "db",
    "public": false
  },
  "RoleMapping": {
    "dataSource": "db",
    "public": false
  },
  "Role": {
    "dataSource": "db",
    "public": false
  },
  "site_map_urls": {
    "dataSource": "scraper_engine",
    "public": true
  },
  "site_registration": {
    "dataSource": "scraper_engine",
    "public": true
  },
  "scrape_urls": {
    "dataSource": "scraper_engine",
    "public": true
  },
  "url_scrape_definition": {
    "dataSource": "scraper_engine",
    "public": true
  },
  "justdial": {
    "dataSource": "scraper_engine",
    "public": true
  },
  "justdial_service_provider": {
    "dataSource": "scraper_engine",
    "public": true
  }
}
